^D:\GAME_NEW\GAME_NEW\RELEASE\ACHARACTER.OBJ|D:\GAME_NEW\GAME_NEW\RELEASE\BOARD.OBJ|D:\GAME_NEW\GAME_NEW\RELEASE\CELL.OBJ|D:\GAME_NEW\GAME_NEW\RELEASE\CHARACTERCONTROLLER.OBJ|D:\GAME_NEW\GAME_NEW\RELEASE\CHARATCERSPRITE.OBJ|D:\GAME_NEW\GAME_NEW\RELEASE\CONSOLEIO.OBJ|D:\GAME_NEW\GAME_NEW\RELEASE\ENEMYCHARACTERS.OBJ|D:\GAME_NEW\GAME_NEW\RELEASE\GAMEWINDOW.OBJ|D:\GAME_NEW\GAME_NEW\RELEASE\GUIBOARD.OBJ|D:\GAME_NEW\GAME_NEW\RELEASE\MAIN.OBJ|D:\GAME_NEW\GAME_NEW\RELEASE\PLAYERCHARACTER.OBJ|D:\GAME_NEW\GAME_NEW\RELEASE\WALL.OBJ
D:\GAME_NEW\RELEASE\GAME_NEW.EXE
D:\GAME_NEW\GAME_NEW\RELEASE\GAME_NEW.EXE.INTERMEDIATE.MANIFEST
D:\GAME_NEW\RELEASE\GAME_NEW.PDB
