^D:\GAME_NEW\GAME_NEW\RELEASE\ACHARACTER.OBJ|D:\GAME_NEW\GAME_NEW\RELEASE\BOARD.OBJ|D:\GAME_NEW\GAME_NEW\RELEASE\CELL.OBJ|D:\GAME_NEW\GAME_NEW\RELEASE\CHARACTERCONTROLLER.OBJ|D:\GAME_NEW\GAME_NEW\RELEASE\CHARATCERSPRITE.OBJ|D:\GAME_NEW\GAME_NEW\RELEASE\CONSOLEIO.OBJ|D:\GAME_NEW\GAME_NEW\RELEASE\ENEMYCHARACTERS.OBJ|D:\GAME_NEW\GAME_NEW\RELEASE\GAMEWINDOW.OBJ|D:\GAME_NEW\GAME_NEW\RELEASE\GUIBOARD.OBJ|D:\GAME_NEW\GAME_NEW\RELEASE\MAIN.OBJ|D:\GAME_NEW\GAME_NEW\RELEASE\PLAYERCHARACTER.OBJ|D:\GAME_NEW\GAME_NEW\RELEASE\WALL.OBJ
/ERRORREPORT:PROMPT /OUT:"D:\game_new\Release\game_new.exe" /INCREMENTAL:NO /NOLOGO "sfml-system.lib" "sfml-graphics.lib" "sfml-window.lib" "sfml-animation.lib" "sfml-audio.lib" kernel32.lib user32.lib gdi32.lib winspool.lib comdlg32.lib advapi32.lib shell32.lib ole32.lib oleaut32.lib uuid.lib odbc32.lib odbccp32.lib /MANIFEST /ManifestFile:"Release\game_new.exe.intermediate.manifest" /MANIFESTUAC:"level='asInvoker' uiAccess='false'" /DEBUG /PDB:"D:\game_new\Release\game_new.pdb" /SUBSYSTEM:CONSOLE /OPT:REF /OPT:ICF /LTCG /TLBID:1 /DYNAMICBASE /NXCOMPAT /IMPLIB:"D:\game_new\Release\game_new.lib" /MACHINE:X86 Release\EnemyCharacters.obj
Release\Board.obj
Release\ACharacter.obj
Release\CharacterController.obj
Release\Cell.obj
Release\CharatcerSprite.obj
Release\ConsoleIO.obj
Release\GameWindow.obj
Release\GUIBoard.obj
Release\main.obj
Release\PlayerCharacter.obj
Release\Wall.obj
